<svg xmlns="http://www.w3.org/2000/svg" width="139" height="23" viewBox="0 0 139 23">
    <path fill="#71B734" fill-rule="nonzero" d="M.792 0h137.65a158.201 158.201 0 0 0-.437 11.662c0 3.834.177 7.613.53 11.338H.993c.666-3.528.998-7.21.998-11.042 0-3.834-.4-7.82-1.199-11.958z" opacity=".3"/>
</svg>
